{
  "development": {
    "username": "postgres",
    "password": "",
    "database": "db_cars_development",
    "host": "127.0.0.1",
    "dialect": "postgres"
  },
  "test": {
    "username": "postgres",
    "password": "",
    "database": "db_cars_test",
    "host": "127.0.0.1",
    "dialect": "postgres"
  },
  "production": {
    "username": "postgres",
    "password": "",
    "database": "db_cars_production",
    "host": "127.0.0.1",
    "dialect": "postgres"
  }
}
